{
  "index": [
    {
      "name": "guides",
      "headings": [
        {
          "name": "bitbucket",
          "heading": null,
          "title": "Bitbucket",
          "items": [
            {
              "title": "Bitbucket Cloud",
              "url": "/cloud/bitbucket/"
            },
            {
              "title": "Bitbucket Server",
              "url": "/bitbucket/server/docs/latest/"
            }
          ]
        },
        {
          "name": "confluence",
          "heading": null,
          "title": "Confluence",
          "items": [
            {
              "title": "Confluence Cloud",
              "url": "/cloud/confluence/"
            },
            {
              "title": "Confluence Server",
              "url": "/server/confluence/"
            }
          ]
        },
        {
          "name": "stride",
          "heading": null,
          "title": "Stride",
          "items": [
            {
              "title": "Stride",
              "url": "/cloud/stride/"
            }
          ]
        },
        {
          "name": "hipchat",
          "heading": null,
          "title": "Hipchat",
          "items": [
            {
              "title": "Hipchat Cloud and Server",
              "url": "/server/hipchat/"
            }
          ]
        },
        {
          "name": "jira",
          "heading": null,
          "title": "Jira",
          "items": [
            {
              "title": "Jira Cloud platform",
              "url": "/cloud/jira/platform/"
            },
            {
              "title": "Jira Server platform",
              "url": "/server/jira/platform/"
            },
            {
              "title": "Jira Service Desk Cloud",
              "url": "/cloud/jira/service-desk/"
            },
            {
              "title": "Jira Service Desk Server",
              "url": "/server/jira/platform/integrating-with-jira-service-desk/"
            },
            {
              "title": "Jira Software Cloud",
              "url": "/cloud/jira/software/"
            },
            {
              "title": "Jira Software Server",
              "url": "/server/jira/platform/integrating-with-jira-software-server/"
            }
          ]
        }
      ],
      "section": null,
      "title": "Product guides"
    }
  ]
}
